21458,Dakahlia Governorate,"Dakahlia Governorate,Egypt",2818,EG,Governorate,Active
21459,Red Sea Governorate,"Red Sea Governorate,Egypt",2818,EG,Governorate,Active
21460,El Beheira Governorate,"El Beheira Governorate,Egypt",2818,EG,Governorate,Active
21461,Faiyum Governorate,"Faiyum Governorate,Egypt",2818,EG,Governorate,Active
21462,Gharbia Governorate,"Gharbia Governorate,Egypt",2818,EG,Governorate,Active
21463,Alexandria Governorate,"Alexandria Governorate,Egypt",2818,EG,Governorate,Active
21464,Ismailia Governorate,"Ismailia Governorate,Egypt",2818,EG,Governorate,Active
21465,Giza Governorate,"Giza Governorate,Egypt",2818,EG,Governorate,Active
21466,Menofia Governorate,"Menofia Governorate,Egypt",2818,EG,Governorate,Active
21467,Menia Governorate,"Menia Governorate,Egypt",2818,EG,Governorate,Active
21468,Cairo Governorate,"Cairo Governorate,Egypt",2818,EG,Governorate,Active
21469,Al Qalyubia Governorate,"Al Qalyubia Governorate,Egypt",2818,EG,Governorate,Active
21470,Luxor Governorate,"Luxor Governorate,Egypt",2818,EG,Governorate,Active
21472,New Valley Governorate,"New Valley Governorate,Egypt",2818,EG,Governorate,Active
21473,Suez Governorate,"Suez Governorate,Egypt",2818,EG,Governorate,Active
21474,Ash Sharqia Governorate,"Ash Sharqia Governorate,Egypt",2818,EG,Governorate,Active
21475,Aswan Governorate,"Aswan Governorate,Egypt",2818,EG,Governorate,Active
21476,Assiut Governorate,"Assiut Governorate,Egypt",2818,EG,Governorate,Active
21477,Beni Suef Governorate,"Beni Suef Governorate,Egypt",2818,EG,Governorate,Active
21478,Port Said Governorate,"Port Said Governorate,Egypt",2818,EG,Governorate,Active
21479,Damietta Governorate,"Damietta Governorate,Egypt",2818,EG,Governorate,Active
21480,South Sinai Governorate,"South Sinai Governorate,Egypt",2818,EG,Governorate,Active
21481,Kafr El Sheikh Governorate,"Kafr El Sheikh Governorate,Egypt",2818,EG,Governorate,Active
21482,Matrouh Governorate,"Matrouh Governorate,Egypt",2818,EG,Governorate,Active
21483,Qena Governorate,"Qena Governorate,Egypt",2818,EG,Governorate,Active
21484,North Sinai Governorate,"North Sinai Governorate,Egypt",2818,EG,Governorate,Active
21485,Sohag Governorate,"Sohag Governorate,Egypt",2818,EG,Governorate,Active
9069547,Al Farwaniyah Governorate,"Al Farwaniyah Governorate,Kuwait",2414,KW,Governorate,Active
9069548,Mubarak Al-Kabeer Governorate,"Mubarak Al-Kabeer Governorate,Kuwait",2414,KW,Governorate,Active
9069549,Hawalli Governorate,"Hawalli Governorate,Kuwait",2414,KW,Governorate,Active
9069550,Al Ahmadi Governorate,"Al Ahmadi Governorate,Kuwait",2414,KW,Governorate,Active
9069551,Al Asimah Governate,"Al Asimah Governate,Kuwait",2414,KW,Governorate,Active
9069552,Al Jahra Governorate,"Al Jahra Governorate,Kuwait",2414,KW,Governorate,Active
9069726,Dhofar Governorate,"Dhofar Governorate,Oman",2512,OM,Governorate,Active
9069727,Ad Dakhiliyah Governorate,"Ad Dakhiliyah Governorate,Oman",2512,OM,Governorate,Active
9069728,Ash Sharqiyah South Governorate,"Ash Sharqiyah South Governorate,Oman",2512,OM,Governorate,Active
9069729,Al Buraymi Governorate,"Al Buraymi Governorate,Oman",2512,OM,Governorate,Active
9069730,Musandam Governorate,"Musandam Governorate,Oman",2512,OM,Governorate,Active
9069731,Al Batinah North Governorate,"Al Batinah North Governorate,Oman",2512,OM,Governorate,Active
9069732,Ash Sharqiyah North Governorate,"Ash Sharqiyah North Governorate,Oman",2512,OM,Governorate,Active
9069733,Al Batinah South Governorate,"Al Batinah South Governorate,Oman",2512,OM,Governorate,Active
9069734,Ad Dhahirah Governorate,"Ad Dhahirah Governorate,Oman",2512,OM,Governorate,Active
9069735,Muscat Governorate,"Muscat Governorate,Oman",2512,OM,Governorate,Active
9069736,Al Wusta Governorate,"Al Wusta Governorate,Oman",2512,OM,Governorate,Active
9069752,Nabatiyeh Governorate,"Nabatiyeh Governorate,Lebanon",2422,LB,Governorate,Active
9069817,Jerash Governorate,"Jerash Governorate,Jordan",2400,JO,Governorate,Active
9069818,Amman Governorate,"Amman Governorate,Jordan",2400,JO,Governorate,Active
9069819,Balqa Governorate,"Balqa Governorate,Jordan",2400,JO,Governorate,Active
9069820,Karak Governorate,"Karak Governorate,Jordan",2400,JO,Governorate,Active
9069821,Tafilah Governorate,"Tafilah Governorate,Jordan",2400,JO,Governorate,Active
9069822,Zarqa Governorate,"Zarqa Governorate,Jordan",2400,JO,Governorate,Active
9069823,Irbid Governorate,"Irbid Governorate,Jordan",2400,JO,Governorate,Active
9069824,Ajloun Governorate,"Ajloun Governorate,Jordan",2400,JO,Governorate,Active
9069825,Aqaba Governorate,"Aqaba Governorate,Jordan",2400,JO,Governorate,Active
9069826,Ma'an Governorate,"Ma'an Governorate,Jordan",2400,JO,Governorate,Active
9069827,Mafraq Governorate,"Mafraq Governorate,Jordan",2400,JO,Governorate,Active
9069828,Madaba Governorate,"Madaba Governorate,Jordan",2400,JO,Governorate,Active
9069829,Southern Governorate,"Southern Governorate,Bahrain",2048,BH,Governorate,Active
9069830,Capital Governorate,"Capital Governorate,Bahrain",2048,BH,Governorate,Active
9069831,Northern Governorate,"Northern Governorate,Bahrain",2048,BH,Governorate,Active
9069832,Muharraq Governorate,"Muharraq Governorate,Bahrain",2048,BH,Governorate,Active
9069833,Central Governorate,"Central Governorate,Bahrain",2048,BH,Governorate,Active
9069850,Al Muthanna Governorate,"Al Muthanna Governorate,Iraq",2368,IQ,Governorate,Active
9069851,Babylon Governorate,"Babylon Governorate,Iraq",2368,IQ,Governorate,Active
9069852,Erbil Governorate,"Erbil Governorate,Iraq",2368,IQ,Governorate,Active
9069853,Baghdad Governorate,"Baghdad Governorate,Iraq",2368,IQ,Governorate,Active
9069854,Maysan Governorate,"Maysan Governorate,Iraq",2368,IQ,Governorate,Active
9069855,Karbala Governorate,"Karbala Governorate,Iraq",2368,IQ,Governorate,Active
9069856,Diyala Governorate,"Diyala Governorate,Iraq",2368,IQ,Governorate,Active
9069857,Al Anbar Governorate,"Al Anbar Governorate,Iraq",2368,IQ,Governorate,Active
9069858,Basra Governorate,"Basra Governorate,Iraq",2368,IQ,Governorate,Active
9069859,Al-Qadisiyyah Governorate,"Al-Qadisiyyah Governorate,Iraq",2368,IQ,Governorate,Active
9069860,Saladin Governorate,"Saladin Governorate,Iraq",2368,IQ,Governorate,Active
9069861,Nineveh Governorate,"Nineveh Governorate,Iraq",2368,IQ,Governorate,Active
9069862,Najaf Governorate,"Najaf Governorate,Iraq",2368,IQ,Governorate,Active
9069863,Kirkuk Governorate,"Kirkuk Governorate,Iraq",2368,IQ,Governorate,Active
9069864,Duhok Governorate,"Duhok Governorate,Iraq",2368,IQ,Governorate,Active
9069865,Sulaymaniyah Governorate,"Sulaymaniyah Governorate,Iraq",2368,IQ,Governorate,Active
9069866,Dhi Qar Governorate,"Dhi Qar Governorate,Iraq",2368,IQ,Governorate,Active
9069867,Wasit Governorate,"Wasit Governorate,Iraq",2368,IQ,Governorate,Active
9070202,Raymah Governorate,"Raymah Governorate,Yemen",2887,YE,Governorate,Active
9070203,Shabwah Governorate,"Shabwah Governorate,Yemen",2887,YE,Governorate,Active
9070204,'Adan Governorate,"'Adan Governorate,Yemen",2887,YE,Governorate,Active
9070205,Al Hudaydah Governorate,"Al Hudaydah Governorate,Yemen",2887,YE,Governorate,Active
9070206,Al Mahrah Governorate,"Al Mahrah Governorate,Yemen",2887,YE,Governorate,Active
9070207,Hadhramaut Governorate,"Hadhramaut Governorate,Yemen",2887,YE,Governorate,Active
9070208,Al Jawf Governorate,"Al Jawf Governorate,Yemen",2887,YE,Governorate,Active
9070209,Sana'a Governorate,"Sana'a Governorate,Yemen",2887,YE,Governorate,Active
9070210,Dhamar Governorate,"Dhamar Governorate,Yemen",2887,YE,Governorate,Active
9070211,Al Bayda' Governorate,"Al Bayda' Governorate,Yemen",2887,YE,Governorate,Active
9070212,Hajjah Governorate,"Hajjah Governorate,Yemen",2887,YE,Governorate,Active
9070213,Abyan Governorate,"Abyan Governorate,Yemen",2887,YE,Governorate,Active
9070214,Ad Dali' Governorate,"Ad Dali' Governorate,Yemen",2887,YE,Governorate,Active
9070215,Lahij Governorate,"Lahij Governorate,Yemen",2887,YE,Governorate,Active
9070216,Taizz Governorate,"Taizz Governorate,Yemen",2887,YE,Governorate,Active
9070217,Saada Governorate,"Saada Governorate,Yemen",2887,YE,Governorate,Active
9070218,Ma'rib Governorate,"Ma'rib Governorate,Yemen",2887,YE,Governorate,Active
9070219,Ibb Governorate,"Ibb Governorate,Yemen",2887,YE,Governorate,Active
9070220,'Amran Governorate,"'Amran Governorate,Yemen",2887,YE,Governorate,Active
9070221,Al Mahwit Governorate,"Al Mahwit Governorate,Yemen",2887,YE,Governorate,Active
9070351,Mount Lebanon Governorate,"Mount Lebanon Governorate,Lebanon",2422,LB,Governorate,Active
9070352,South Governorate,"South Governorate,Lebanon",2422,LB,Governorate,Active
9070353,North Governorate,"North Governorate,Lebanon",2422,LB,Governorate,Active
9070354,Beirut Governorate,"Beirut Governorate,Lebanon",2422,LB,Governorate,Active
9070355,Beqaa Governorate,"Beqaa Governorate,Lebanon",2422,LB,Governorate,Active
