20119,Northwest Territories,"Northwest Territories,Canada",2124,CA,Territory,Active
20120,Nunavut,"Nunavut,Canada",2124,CA,Territory,Active
20125,Yukon Territory,"Yukon Territory,Canada",2124,CA,Territory,Active
9069537,Hong Kong Island,"Hong Kong Island,Hong Kong",2344,HK,Territory,Active
